000300042092;0465885880 ; 1 ;PC ;areid@esab.com ;0000003266;PO36987 ;2; ;000000005055200091;2; Input bridge blew and damaged the power brd. ;Functional - Power Source Performance ;No OCV ;0440003884 ;PC-BOARD POWER BD MV 15AP1 ;0464504880 ;RECTIFIER SET FOR WARRIOR ;0440141880 ;PCBA Auxiliary Supply ;0445516880 ;Warrior 400MV Service Kit ; ; ; ; ; ; ; ; ; ;
000300042093;0700000800 ; 2 ;PC ;areid@esab.com ;0000001733;PO123589 ;2; ;000000000429170014;1; less tahan a week - getting flashed ;Functional - Helmet ;Cartridge is not reacting to Arc ;0700000800 ;Sentinel A50 5-13 ADF Welding Helmet ; ; ; ; ; ; ; ; ; ; ; ; ; ; ; ;
000300042095;0700000800 ; 1 ;PC ;areid@esab.com ;0000003707;PO258321 ;2; ;000000000525170868;2; Cannot turn on - changed batteries twice ;Functional - Helmet ;Other ;0700000800 ;Sentinel A50 5-13 ADF Welding Helmet ; ; ; ; ; ; ; ; ; ; ; ; ; ; ; ;
