000300042461;0560951435 ; 1 ;PC ;areid@esab.com ;0000007512;123123123 ;2; ; ;1; Could you please send one screen protector to the customer? Apparently, they did not receive one with the machine. ;F-CNC ;0014 ;0560951435 ;SCREEN PROTECTOR VIS T5 ; ; ; ; ; ; ; ; ; ; ; ; ; ; ; ;
000300042462;0700000800 ; 1 ;PC ;areid@esab.com ;0000003707;300051539 ;2; ; ;1; Lens giving a flash arc they did not receive one with the machine. ;F-H ;0005 ;0560951435 ;SCREEN PROTECTOR VIS T5 ; ; ; ; ; ; ; ; ; ; ; ; ; ; ; ;0060023872
000300042464;0558102240 ; 1 ;PC ;areid@esab.com ;0000007358; ;2; ; ;1; Freight damadges - Display crushed inward they did not receive one with the machine. ;F-PSP ;9999 ;0558102240 ;Rebel EMP 215ic MIG/TIG/STICK PKG ;0558102240 ;Rebel EMP 215ic MIG/TIG/STICK PKG ;0558102240 ;Rebel EMP 215ic MIG/TIG/STICK PKG ;0558102240 ;Rebel EMP 215ic MIG/TIG/STICK PKG ;0558102240 ;Rebel EMP 215ic MIG/TIG/STICK PKG ;0558102240 ;Rebel EMP 215ic MIG/TIG/STICK PKG ;0558102240 ;Rebel EMP 215ic MIG/TIG/STICK PKG ;0558102240 ;Rebel EMP 215ic MIG/TIG/STICK PKG ; ;0060023873
